The Effect of Sunspots on Bee Colonies
…
fullness%>%group_by(state,year)%>%dplyr::summarize(meansunspot=mean(value), meanprod=mean(totalprod), meancol=mean(numcol))

## # A tibble: 626 x 5
## # Groups:   state [44]
##    state  year meansunspot meanprod meancol
##    <fct> <int>       <dbl>    <dbl>   <dbl>
##  1 AL     1998        64.2  1136000   16000
##  2 AL     1999        93.2  1156000   17000
##  3 AL     2000       120.   1248000   16000
##  4 AL     2001       111.   1022000   14000
##  5 AL     2002       104.   1032000   12000
##  6 AL     2003        63.6  1066000   13000
##  7 AL     2004        40.4  1044000   12000
##  8 AL     2005        29.8   858000   13000
##  9 AL     2006        15.2   792000   11000
## 10 AL     2007         7.5   616000   11000
## # … with 616 more rows
…
